<?xml version="1.0" encoding="UTF-8"?>
<svg width="140px" height="34px" viewBox="0 0 140 34" version="1.1" xmlns="http://www.w3.org/2000/svg" xmlns:xlink="http://www.w3.org/1999/xlink">
    <!-- Generator: Sketch 48.1 (47250) - http://www.bohemiancoding.com/sketch -->
    <title>oakslogo2new</title>
    <desc>Created with Sketch.</desc>
    <defs>
        <polygon id="path-1" points="0.123958333 0.841353263 19.6988116 0.841353263 19.6988116 20.4166667 0.123958333 20.4166667"></polygon>
        <polygon id="path-3" points="0.630194444 0.396666667 20.9476944 0.396666667 20.9476944 20.4162778 0.630194444 20.4162778"></polygon>
    </defs>
    <g id="Logo/WhiteStacked" stroke="none" stroke-width="1" fill="none" fill-rule="evenodd">
        <g id="oakslogo2new">
            <path d="M74.3030471,26.9480059 L74.3412824,27.1085941 L74.1730471,27.0856529 C74.0506941,27.0703588 73.9130471,27.0550647 73.7601059,27.0397706 L73.6989294,27.0321235 C73.5612824,27.0244765 73.4159882,27.0091824 73.2706941,27.0015353 C73.1032235,26.9938882 72.9349882,26.9862412 72.7659882,26.9862412 C72.6359882,26.9785941 72.5144,26.9785941 72.3996941,26.9785941 C72.3844,27.6362412 72.3759882,28.2931235 72.3759882,28.9354765 L72.3759882,30.6629471 C72.3759882,31.1141235 72.3844,31.5500059 72.3996941,31.9629471 C72.4073412,32.3827706 72.4226353,32.8033588 72.4448118,33.2163 L72.4532235,33.3539471 L72.3148118,33.3386529 C72.2008706,33.3233588 72.0708706,33.3157118 71.8949882,33.3157118 C71.7191059,33.3157118 71.5891059,33.3233588 71.4744,33.3386529 L71.3367529,33.3539471 L71.3596941,32.9027706 C71.3673412,32.5892412 71.3834,32.2764765 71.3979294,31.9629471 C71.4139882,31.4811824 71.4139882,31.0529471 71.4139882,30.6629471 L71.4139882,28.9354765 C71.4139882,28.2701824 71.4055765,27.6133 71.3902824,26.9785941 C71.2755765,26.9785941 71.1455765,26.9785941 71.0232235,26.9862412 C70.8549882,26.9862412 70.6867529,26.9938882 70.5192824,27.0015353 C70.3732235,27.0091824 70.2286941,27.0244765 70.0910471,27.0321235 L70.0298706,27.0397706 C69.8769294,27.0550647 69.7392824,27.0703588 69.6169294,27.0856529 L69.4486941,27.1085941 L69.4869294,26.9480059 C69.5175176,26.8409471 69.5328118,26.7415353 69.5328118,26.6574176 C69.5328118,26.5885941 69.5175176,26.4891824 69.4869294,26.3668294 L69.4563412,26.2215353 L69.6092824,26.2299471 C69.9992824,26.2452412 70.3816353,26.2521235 70.7486941,26.2605353 C71.4973412,26.2827118 72.2926353,26.2827118 73.0420471,26.2605353 C73.4083412,26.2521235 73.7906941,26.2452412 74.1806941,26.2299471 L74.3336353,26.2215353 L74.3030471,26.3668294 C74.2724588,26.4891824 74.2564,26.5970059 74.2564,26.6650647 C74.2564,26.7415353 74.2724588,26.8333 74.3030471,26.9480059" id="Fill-17" fill="#FFFFFF"></path>
            <path d="M66.5701118,30.0666294 L66.4095235,30.0666294 C66.1036412,30.0742765 65.8054059,30.0742765 65.4758176,30.0666294 L65.3764059,30.0666294 C65.2395235,30.0589824 65.1018765,30.0513353 64.9718765,30.0513353 L65.9736412,27.9331 L67.0052294,30.0589824 C66.8607,30.0666294 66.7146412,30.0666294 66.5701118,30.0666294 Z M69.6977588,33.1636882 C69.6059941,33.0183941 69.4905235,32.7966294 69.3383471,32.4907471 C69.2305235,32.2766294 69.1242294,32.0472176 69.0018765,31.7948647 L68.8412882,31.4583941 C68.6807,31.1219235 68.5124647,30.7548647 68.3289353,30.3725118 L67.5099353,28.6289824 C67.3424647,28.2619235 67.1658176,27.8948647 67.0052294,27.5278059 C66.7995235,27.0842765 66.6159941,26.6789824 66.4401118,26.2966294 L66.4095235,26.2278059 L66.0577588,26.2278059 L66.0271706,26.2966294 C65.4612882,27.4666294 64.8954059,28.6213353 64.3371706,29.7531 C63.8018765,30.8389824 63.2428765,31.9631 62.6242294,33.1713353 L62.5248176,33.3625118 L62.7389353,33.3395706 C62.8383471,33.3242765 62.9599353,33.3242765 63.1289353,33.3242765 C63.2895235,33.3242765 63.4118765,33.3242765 63.5112882,33.3395706 L63.6107,33.3472176 L63.6336412,33.2554529 C63.7330529,32.9495706 63.8775824,32.5672176 64.0618765,32.1236882 C64.2224647,31.7107471 64.4205235,31.2519235 64.6583471,30.7319235 C64.8571706,30.7242765 65.0559941,30.7242765 65.2471706,30.7166294 L66.6228765,30.7166294 C66.8377588,30.7242765 67.0518765,30.7242765 67.2575824,30.7319235 C67.3271706,30.9001588 67.4112882,31.0760412 67.4877588,31.2519235 L67.8548176,32.0548647 C67.9611118,32.2842765 68.0528765,32.5136882 68.1377588,32.7201588 C68.2218765,32.9342765 68.2983471,33.1101588 68.3434647,33.2631 L68.3740529,33.3548647 L68.4658176,33.3395706 C68.5507,33.3242765 68.6424647,33.3242765 68.7418765,33.3242765 L69.3077588,33.3242765 C69.4148176,33.3242765 69.4989353,33.3242765 69.5822882,33.3395706 L69.8201118,33.3701588 L69.6977588,33.1636882 Z" id="Fill-19" fill="#FFFFFF"></path>
            <path d="M83.4683529,33.1859412 L83.5218824,33.3465294 L83.3544118,33.3388824 C83.086,33.3235882 82.7877647,33.3159412 82.4054118,33.3159412 L80.4944118,33.3159412 C80.1281176,33.3159412 79.8298824,33.3235882 79.5469412,33.3388824 L79.4169412,33.3465294 L79.4245882,33.2165294 C79.4475294,32.8035882 79.4628235,32.383 79.4781176,31.9555294 C79.5010588,31.5731765 79.5087059,31.1525882 79.5087059,30.6631765 L79.5087059,28.9357059 C79.5087059,28.4386471 79.5010588,28.0333529 79.4781176,27.6433529 C79.4628235,27.2235294 79.4475294,26.7876471 79.4245882,26.3517647 L79.4169412,26.2064706 L79.5545882,26.2294118 C79.6463529,26.2447059 79.7304706,26.2523529 79.8069412,26.26 C79.9751765,26.2905882 80.1281176,26.2829412 80.2810588,26.26 C80.3644118,26.2523529 80.4492941,26.2447059 80.5326471,26.2294118 L80.6787059,26.2064706 L80.655,26.5811765 C80.6404706,26.9405882 80.6244118,27.2915882 80.6167647,27.6433529 C80.5938235,28.0792353 80.5861765,28.5151176 80.5861765,28.9357059 C80.5861765,29.7768824 80.5938235,30.5025882 80.5938235,31.122 C80.6022353,31.6955294 80.6098824,32.2071176 80.6167647,32.6659412 C81.0610588,32.6659412 81.4961765,32.6659412 81.9091176,32.6506471 C82.3748235,32.643 82.8565882,32.6047647 83.346,32.5359412 L83.5218824,32.513 L83.4683529,32.6812353 C83.4377647,32.7959412 83.4224706,32.8877059 83.4224706,32.9565294 C83.4224706,33.0177059 83.4377647,33.0941765 83.4683529,33.1859412" id="Fill-21" fill="#FFFFFF"></path>
            <path d="M87.3747765,27.9341706 L88.3987176,30.0592882 C88.2610706,30.0669353 88.1165412,30.0669353 87.9704824,30.0669353 L87.8098941,30.0669353 C87.5124235,30.0745824 87.2065412,30.0745824 86.8777176,30.0669353 L86.7783059,30.0669353 C86.6406588,30.0592882 86.5030118,30.0516412 86.3730118,30.0516412 L87.3747765,27.9341706 Z M91.1050118,33.1624647 C91.0056,33.0018765 90.8832471,32.7732294 90.7456,32.4902882 L89.4387176,29.7687 C89.3010706,29.4704647 89.1634235,29.1729941 89.0257765,28.8739941 C88.8116588,28.4159353 88.6051882,27.9724059 88.4071294,27.5288765 L87.8098941,26.2296412 L87.4581294,26.2296412 L87.4206588,26.2984647 C86.8624235,27.4677 86.2973059,28.6224059 85.7383059,29.7534059 C85.0967176,31.0534059 84.5545412,32.1385235 84.0261294,33.1708765 L83.9267176,33.3612882 L84.1408353,33.3391118 C84.2402471,33.3230529 84.3702471,33.3230529 84.5308353,33.3230529 C84.6914235,33.3230529 84.8137765,33.3230529 84.9208353,33.3391118 L85.0126,33.3467588 L85.0355412,33.2549941 C85.1349529,32.9644059 85.2726,32.5820529 85.4637765,32.1232294 C85.6243647,31.7102882 85.8231882,31.2598765 86.0594824,30.7322294 C86.2583059,30.7245824 86.4571294,30.7245824 86.6483059,30.7169353 L88.0247765,30.7169353 C88.2381294,30.7245824 88.4522471,30.7245824 88.6587176,30.7322294 C88.7428353,30.9302882 88.8346,31.1367588 88.9340118,31.3508765 L89.0028353,31.4961706 C89.0869529,31.6873471 89.1710706,31.8708765 89.2551882,32.0544059 C89.3546,32.2838176 89.4540118,32.5132294 89.5457765,32.7197 C89.6214824,32.9338176 89.6903059,33.1097 89.7446,33.2618765 L89.7751882,33.3536412 L89.8669529,33.3391118 C89.9503059,33.3230529 90.0420706,33.3230529 90.1414824,33.3230529 L90.7150118,33.3230529 C90.8144235,33.3230529 90.9061882,33.3230529 90.9910706,33.3391118 L91.2273647,33.3697 L91.1050118,33.1624647 Z" id="Fill-23" fill="#FFFFFF"></path>
            <path d="M97.4115412,29.6006176 L97.4115412,26.8331471 L98.2290118,26.8331471 C98.4966588,26.8331471 98.7337176,26.8484412 98.9478353,26.8874412 C99.1474235,26.9172647 99.3148941,26.9784412 99.4448941,27.0702059 C99.5825412,27.1619706 99.6896,27.2843235 99.7576588,27.4449118 C99.8348941,27.6055 99.8731294,27.8272647 99.8731294,28.0949118 C99.8731294,28.4229706 99.8188353,28.6829706 99.7048941,28.8825588 C99.5901882,29.0737353 99.4525412,29.2259118 99.2690118,29.3482647 C99.0931294,29.4629706 98.9019529,29.5394412 98.6801882,29.5853235 C98.2672471,29.6770882 97.7938941,29.6694412 97.4115412,29.6006176 M100.920012,27.2843235 C100.836659,27.0855 100.721188,26.9096176 100.569012,26.7719706 C100.416071,26.6266765 100.255482,26.5272647 100.078835,26.4592059 C99.9037176,26.3903824 99.7278353,26.3360882 99.5519529,26.2986176 C99.3760706,26.2680294 99.2078353,26.2450882 99.0548941,26.2374412 C98.8943059,26.2297941 98.7650706,26.2297941 98.6656588,26.2297941 C98.5807765,26.2297941 98.4813647,26.2297941 98.3750706,26.2374412 L98.0309529,26.2527353 C97.9078353,26.2603824 97.7778353,26.2603824 97.6638941,26.2680294 C97.5491882,26.2756765 97.4421294,26.2680294 97.3656588,26.2756765 C97.2050706,26.2756765 97.0368353,26.2756765 96.8686,26.2603824 C96.6934824,26.2527353 96.5328941,26.2450882 96.3646588,26.2297941 L96.2346588,26.2145 L96.2568353,26.5968529 C96.2728941,26.9562647 96.2874235,27.2996176 96.3034824,27.6437353 C96.3180118,28.0566765 96.3256588,28.4925588 96.3256588,28.9353235 L96.3256588,30.6635588 C96.3256588,31.1063235 96.3180118,31.5422059 96.3034824,31.9551471 C96.2805412,32.3833824 96.2652471,32.8032059 96.2423059,33.2169118 L96.2346588,33.3537941 L96.3646588,33.3392647 C96.5091882,33.3232059 96.6628941,33.3232059 96.8686,33.3232059 C97.0758353,33.3232059 97.2280118,33.3232059 97.3656588,33.3392647 L97.4956588,33.3537941 L97.4956588,33.2169118 C97.4727176,32.8032059 97.4497765,32.3833824 97.4344824,31.9551471 C97.4191882,31.5575 97.4115412,31.1300294 97.4115412,30.6635588 L97.4115412,30.2353235 C97.5033059,30.2429706 97.6027176,30.2429706 97.7021294,30.2506176 L97.8015412,30.2506176 C98.1227176,30.2582647 98.5272471,30.2506176 99.0174235,30.1741471 C99.3607765,30.1129706 99.6743059,30.0059118 99.9725412,29.8453235 C100.270012,29.6923824 100.530012,29.4629706 100.737247,29.1723824 C100.9506,28.8825588 101.058424,28.5078529 101.058424,28.0337353 C101.058424,27.7278529 101.011776,27.4831471 100.920012,27.2843235" id="Fill-25" fill="#FFFFFF"></path>
            <path d="M104.795694,30.0670118 L104.620576,30.0670118 C104.321576,30.0746588 104.023341,30.0746588 103.702165,30.0670118 L103.602753,30.0670118 C103.458224,30.0593647 103.320576,30.0517176 103.190576,30.0517176 L104.191576,27.9342471 L105.223929,30.0593647 C105.078635,30.0670118 104.933341,30.0670118 104.795694,30.0670118 Z M107.922576,33.1625412 C107.830812,33.0172471 107.715341,32.8038941 107.563165,32.4903647 L107.058459,31.4580118 C106.959047,31.2446588 106.851988,31.0228941 106.737282,30.7850706 L105.842576,28.8740706 C105.629224,28.4160118 105.422753,27.9724824 105.223929,27.5289529 L104.627459,26.2297176 L104.268812,26.2297176 L104.238224,26.2985412 C103.679988,27.4677765 103.114106,28.6224824 102.563518,29.7534824 C101.937224,31.0152471 101.370576,32.1309529 100.843694,33.1709529 L100.744282,33.3613647 L100.9584,33.3391882 C101.065459,33.3231294 101.1794,33.3231294 101.3484,33.3231294 C101.508988,33.3231294 101.630576,33.3231294 101.7384,33.3391882 L101.8294,33.3468353 L101.859988,33.2543059 C101.944106,32.9721294 102.090165,32.5897765 102.280576,32.1233059 C102.449576,31.7027176 102.647635,31.2446588 102.877047,30.7323059 C103.075871,30.7246588 103.274694,30.7246588 103.465871,30.7170118 L104.842341,30.7170118 C105.055694,30.7246588 105.269812,30.7246588 105.476282,30.7323059 C105.5604,30.9303647 105.652165,31.1368353 105.751576,31.3509529 L106.072753,32.0544824 C106.179812,32.2838941 106.271576,32.5133059 106.363341,32.7197765 C106.446694,32.9338941 106.515518,33.1097765 106.562165,33.2619529 L106.592753,33.3537176 L106.6914,33.3391882 C106.767871,33.3231294 106.859635,33.3231294 106.959047,33.3231294 L107.532576,33.3231294 C107.631988,33.3231294 107.723753,33.3231294 107.807106,33.3391882 L108.044929,33.3697765 L107.922576,33.1625412 Z" id="Fill-27" fill="#FFFFFF"></path>
            <path d="M118.517118,32.7808 C118.134765,32.7808 117.775353,32.7196235 117.454176,32.6049176 C117.126118,32.4902118 116.835529,32.3066824 116.598471,32.0696235 C116.353765,31.8249176 116.162588,31.5198 116.024941,31.1450941 C115.888059,30.7627412 115.819235,30.3115647 115.819235,29.7999765 C115.819235,29.2876235 115.888059,28.8364471 116.024941,28.4540941 C116.162588,28.0793882 116.353765,27.7735059 116.598471,27.5288 C116.827882,27.2917412 117.118471,27.1089765 117.454176,26.9942706 C117.775353,26.8719176 118.134765,26.8183882 118.517118,26.8183882 C118.907118,26.8183882 119.274176,26.8719176 119.595353,26.9942706 C119.931824,27.1089765 120.214765,27.2848588 120.458706,27.5288 C120.696529,27.7735059 120.886941,28.0793882 121.024588,28.4540941 C121.162235,28.8288 121.231059,29.2792118 121.231059,29.7999765 C121.231059,30.3192118 121.162235,30.7703882 121.024588,31.1450941 C120.886941,31.5198 120.696529,31.8249176 120.458706,32.0696235 C120.206353,32.3143294 119.924176,32.4902118 119.595353,32.6049176 C119.274176,32.7196235 118.914765,32.7808 118.517118,32.7808 M122.170882,28.2935059 C121.979706,27.8499765 121.705176,27.4676235 121.361059,27.1617412 C121.009294,26.8566235 120.588706,26.6195647 120.106941,26.4666235 C119.625176,26.3060353 119.090647,26.2295647 118.517118,26.2295647 C117.952,26.2295647 117.423588,26.3060353 116.942588,26.4666235 C116.461588,26.6272118 116.041,26.8566235 115.689235,27.1617412 C115.345118,27.4760353 115.069824,27.8499765 114.878647,28.2935059 C114.687471,28.7293882 114.588059,29.2340941 114.588059,29.7999765 C114.588059,30.3650941 114.687471,30.8698 114.878647,31.3056824 C115.069824,31.7408 115.345118,32.1231529 115.689235,32.4366824 C116.041,32.7425647 116.468471,32.9719765 116.942588,33.1165059 C117.416706,33.2618 117.943588,33.3390353 118.517118,33.3390353 C119.105941,33.3390353 119.625176,33.2702118 120.106941,33.1165059 C120.581059,32.9719765 121.001647,32.7425647 121.361059,32.4366824 C121.705176,32.1231529 121.979706,31.7484471 122.170882,31.3056824 C122.362059,30.8698 122.461471,30.3650941 122.461471,29.7999765 C122.461471,29.2340941 122.362059,28.7293882 122.170882,28.2935059" id="Fill-29" fill="#FFFFFF"></path>
            <path d="M113.280641,32.6814647 C113.250053,32.7961706 113.234759,32.8879353 113.234759,32.9567588 C113.234759,33.0171706 113.250053,33.0944059 113.280641,33.1861706 L113.334171,33.3467588 L113.1667,33.3391118 C112.899053,33.3230529 112.593171,33.3161706 112.218465,33.3161706 L110.3067,33.3161706 C109.948053,33.3161706 109.642171,33.3230529 109.359229,33.3391118 L109.229229,33.3467588 L109.236876,33.2167588 C109.245288,32.9949941 109.259818,32.7655824 109.267465,32.5361706 L109.290406,31.9549941 C109.314112,31.5504647 109.320994,31.1061706 109.320994,30.6634059 L109.320994,28.9359353 C109.320994,28.4924059 109.314112,28.0565235 109.290406,27.6435824 C109.282759,27.4141706 109.275876,27.1771118 109.259818,26.9324059 L109.229229,26.2067 L109.366876,26.2296412 C109.458641,26.2449353 109.542759,26.2525824 109.619229,26.2602294 C109.787465,26.2908176 109.940406,26.2831706 110.093347,26.2602294 C110.1767,26.2525824 110.261582,26.2449353 110.3457,26.2296412 L110.490994,26.2067 L110.467288,26.6119941 C110.452759,26.9561118 110.4367,27.3071118 110.422171,27.6435824 C110.406876,28.0947588 110.398465,28.5229941 110.398465,28.9359353 C110.398465,29.7763471 110.398465,30.5028176 110.406876,31.1214647 C110.414524,31.6949941 110.422171,32.2073471 110.429053,32.6661706 C110.873347,32.6661706 111.308465,32.6661706 111.721406,32.6508765 C112.187876,32.6432294 112.669641,32.6049941 113.159053,32.5361706 L113.334171,32.5132294 L113.280641,32.6814647 Z" id="Fill-31" fill="#FFFFFF"></path>
            <path d="M135.533276,27.9341706 L136.557982,30.0592882 C136.419571,30.0669353 136.275041,30.0669353 136.128982,30.0669353 L135.961512,30.0669353 C135.663276,30.0745824 135.365041,30.0745824 135.043865,30.0669353 L134.937571,30.0669353 C134.799159,30.0592882 134.661512,30.0516412 134.524629,30.0516412 L135.533276,27.9341706 Z M139.263512,33.1624647 C139.171747,33.0102882 139.050159,32.7808765 138.9041,32.4902882 C138.751924,32.1844059 138.591335,31.8402882 138.400159,31.4579353 C138.292335,31.2208765 138.170747,30.9769353 138.048394,30.7169353 L137.811335,30.2198765 C137.673688,29.9216412 137.536041,29.6310529 137.398394,29.3404647 L137.184276,28.8739941 C136.970159,28.4159353 136.763688,27.9724059 136.565629,27.5288765 L135.969159,26.2296412 L135.617394,26.2296412 L135.586806,26.2984647 C135.020924,27.4677 134.455806,28.6224059 133.896806,29.7534059 C133.400512,30.7697 132.835394,31.8861706 132.185394,33.1708765 L132.085218,33.3612882 L132.299335,33.3391118 C132.398747,33.3230529 132.521865,33.3230529 132.681688,33.3230529 C132.842276,33.3230529 132.965394,33.3230529 133.079335,33.3391118 L133.1711,33.3467588 L133.201688,33.2549941 C133.3011,32.9338176 133.446394,32.5438176 133.622276,32.1232294 C133.790512,31.6873471 133.996982,31.2208765 134.217982,30.7322294 C134.417571,30.7245824 134.616394,30.7245824 134.807571,30.7169353 L136.183276,30.7169353 C136.397394,30.7245824 136.610747,30.7245824 136.817982,30.7322294 C136.8631,30.8469353 136.917394,30.9608765 136.970159,31.0755824 L137.207218,31.5955824 C137.276041,31.7485235 137.344865,31.9014647 137.413688,32.0544059 C137.5131,32.2838176 137.612512,32.5132294 137.696629,32.7273471 C137.7731,32.9032294 137.841924,33.0791118 137.9031,33.2618765 L137.933688,33.3536412 L138.025453,33.3391118 C138.109571,33.3230529 138.200571,33.3230529 138.300747,33.3230529 L138.873512,33.3230529 C138.972924,33.3230529 139.064688,33.3230529 139.149571,33.3391118 L139.385865,33.3697 L139.263512,33.1624647 Z" id="Fill-33" fill="#FFFFFF"></path>
            <path d="M130.870406,33.2087294 L130.893347,33.3693176 L130.732759,33.3387294 C130.671582,33.3234353 130.610406,33.3157882 130.5347,33.3157882 L130.075112,33.3157882 C129.998641,33.3157882 129.930582,33.3234353 129.868641,33.3387294 L129.746288,33.3616706 L129.739406,33.2316706 C129.670582,32.3759647 129.593347,31.5424353 129.532935,30.7318471 L129.524524,30.7012588 C129.463347,30.0061412 129.394524,29.2873176 129.302759,28.5302588 C128.912759,29.2567294 128.531171,29.9832 128.156465,30.6936118 C127.728994,31.5042 127.322935,32.3675529 126.941347,33.2469647 L126.910759,33.3157882 L126.6737,33.3157882 L126.643112,33.2546118 C126.207229,32.3300824 125.810347,31.5194941 125.435641,30.7777294 C125.068582,30.0520235 124.693876,29.3102588 124.319935,28.5532 C124.311524,28.6755529 124.296229,28.7979059 124.280935,28.9202588 L124.212112,29.5167294 C124.159347,29.9908471 124.1127,30.4565529 124.067582,30.9153765 C124.020935,31.3818471 123.9827,31.8177294 123.944465,32.2306706 C123.913876,32.6352 123.899347,32.9716706 123.899347,33.2240235 L123.899347,33.3540235 L123.768582,33.3387294 C123.685229,33.3234353 123.585818,33.3157882 123.448171,33.3157882 C123.309759,33.3157882 123.210347,33.3234353 123.126994,33.3387294 L122.974053,33.3616706 L122.996994,33.2087294 C123.080347,32.6734353 123.165229,32.1159647 123.256994,31.5271412 C123.347994,30.9383176 123.432112,30.3418471 123.516994,29.7461412 C123.600347,29.1496706 123.677582,28.5684941 123.746406,27.9880824 C123.814465,27.4374941 123.876406,26.8792588 123.929171,26.3363176 L123.944465,26.2300235 L124.280935,26.2300235 L124.311524,26.2980824 C124.738994,27.1927882 125.190171,28.1027882 125.657406,29.0043765 C126.092524,29.8532 126.536053,30.6936118 126.979582,31.5118471 C127.025465,31.4124353 127.086641,31.3053765 127.155465,31.1677294 L127.223524,31.0377294 C127.331347,30.8389059 127.445288,30.6171412 127.582935,30.3647882 C127.743524,30.0673176 127.912524,29.7384941 128.095288,29.3943765 C128.278818,29.0426118 128.463112,28.6832 128.653524,28.3237882 C128.852347,27.9574941 129.035876,27.6057294 129.219406,27.2616118 C129.402935,26.9174941 129.578818,26.5886706 129.739406,26.2912 L129.769994,26.2300235 L130.067465,26.2300235 L130.083524,26.3286706 C130.1447,26.9174941 130.205112,27.4910235 130.266288,28.0332 L130.281582,28.2243765 C130.343524,28.7826118 130.4047,29.3408471 130.465112,29.8837882 L130.549229,30.6477294 C130.587465,30.9536118 130.6257,31.2594941 130.656288,31.5653765 C130.725112,32.1159647 130.793935,32.6665529 130.870406,33.2087294" id="Fill-35" fill="#FFFFFF"></path>
            <path d="M14.7938194,2.82119444 L10.8261806,2.82119444 C10.4129861,2.82119444 10.1524306,2.87466667 10.0425694,2.98063889 C9.93368056,3.08952778 9.88020833,3.353 9.88020833,3.77883333 L9.88020833,17.9081389 L9.89673611,18.4341111 C9.94243056,19.4899444 10.5588194,20.1141111 11.7449306,20.3134167 C12.0735417,20.3649444 12.2378472,20.4660556 12.2378472,20.6148056 C12.2378472,20.80925 12.1075694,20.9045278 11.8440972,20.9045278 C11.729375,20.9045278 11.4989583,20.8802222 11.1499306,20.8238333 C10.9710417,20.7975833 10.5461806,20.7839722 9.87729167,20.7839722 L8.84284722,20.7723056 L7.74229167,20.7839722 C7.34368056,20.7839722 7.01020833,20.7975833 6.73604167,20.8238333 C6.199375,20.8802222 5.88145833,20.9045278 5.788125,20.9045278 C5.50520833,20.9045278 5.36326389,20.8102222 5.36326389,20.6157778 C5.36326389,20.4748056 5.51881944,20.3873056 5.82993056,20.3532778 C6.55520833,20.2628611 7.04326389,20.0713333 7.29895833,19.7796667 C7.55173611,19.488 7.68006944,18.9610556 7.68006944,18.2066111 L7.68006944,3.92758333 L7.66451389,3.57563889 C7.66451389,3.25286111 7.61590278,3.04675 7.51770833,2.95438889 C7.41756944,2.86494444 7.19104167,2.82119444 6.83326389,2.82119444 L3.09215278,2.82119444 C2.32895833,2.82119444 1.77576389,2.96605556 1.43159722,3.25772222 C1.08840278,3.55036111 0.823958333,4.10161111 0.635347222,4.90952778 C0.550763889,5.26147222 0.425347222,5.43161111 0.255208333,5.42091667 C0.0850694444,5.41216667 0.000486111111,5.29258333 0.000486111111,5.06022222 C0.000486111111,4.86966667 0.056875,4.52452778 0.169652778,4.02480556 C0.311597222,3.37925 0.381597222,2.8455 0.381597222,2.4255 C0.381597222,2.01230556 0.432152778,1.74105556 0.529375,1.61077778 C0.629513889,1.4805 0.837569444,1.41730556 1.15840278,1.41730556 L16.3610417,1.41730556 C16.8782639,1.41730556 17.1922917,1.47077778 17.3002083,1.57869444 C17.4071528,1.68466667 17.460625,2.00452778 17.460625,2.53147222 C17.460625,3.06036111 17.4859028,3.44438889 17.5325694,3.68841667 C17.5792361,3.99272222 17.6074306,4.21147222 17.6171528,4.34369444 C17.6278472,4.61397222 17.5277083,4.75688889 17.3196528,4.77730556 C17.1524306,4.78605556 17.0386806,4.64313889 16.9813194,4.35633333 C16.8597917,3.71952778 16.6604861,3.30244444 16.3902083,3.10897222 C16.1150694,2.91744444 15.5832639,2.82119444 14.7938194,2.82119444" id="Fill-1" fill="#FFFFFF"></path>
            <g id="Group-5" transform="translate(18.472222, 0.575944)">
                <mask id="mask-2" fill="white">
                    <use xlink:href="#path-1"></use>
                </mask>
                <g id="Clip-4"></g>
                <path d="M5.94368056,9.77481944 L14.1579861,9.77481944 C14.5653472,9.77481944 14.8249306,9.737875 14.9377083,9.66398611 C15.0495139,9.59009722 15.1029861,9.41995833 15.1029861,9.15745833 L15.1029861,4.36731944 C15.1029861,3.40190278 14.9814583,2.71940278 14.7345139,2.31690278 C14.4885417,1.91440278 14.0354861,1.63829167 13.3772917,1.486625 C13.0992361,1.43120833 12.9660417,1.32329167 12.9728472,1.15995833 C12.9835417,1.00343056 13.0992361,0.926625 13.3228472,0.926625 C13.5172917,0.926625 13.8332639,0.951902778 14.2688194,0.995652778 C14.8822917,1.06176389 15.5307639,1.09579167 16.218125,1.09579167 C17.2117361,1.09579167 17.906875,1.06856944 18.3054861,1.01023611 C18.5572917,0.973291667 18.7284028,0.954819444 18.8227083,0.954819444 C19.044375,0.954819444 19.1561806,1.04620833 19.1561806,1.22704167 C19.1561806,1.372875 19.044375,1.46718056 18.8227083,1.51481944 L18.2520139,1.63926389 C17.9622917,1.69759722 17.723125,1.90468056 17.5267361,2.26343056 C17.3313194,2.624125 17.2340972,3.035375 17.2340972,3.50301389 L17.2340972,17.0431528 C17.2340972,18.0406528 17.373125,18.732875 17.653125,19.1159306 C17.9302083,19.4970417 18.4629861,19.730375 19.2524306,19.8149583 C19.5402083,19.8519028 19.6889583,19.9423194 19.6967361,20.0871806 C19.7171528,20.307875 19.586875,20.4157917 19.3088194,20.4157917 C19.1240972,20.4157917 18.8829861,20.3934306 18.5835417,20.3487083 C18.3609028,20.3117639 17.8971528,20.2913472 17.1922917,20.2913472 L16.1607639,20.2777361 L15.1195139,20.3059306 C14.9513194,20.3059306 14.7286806,20.3195417 14.450625,20.3487083 C13.8740972,20.3934306 13.5552083,20.4157917 13.4900694,20.4157917 C13.2577083,20.4274583 13.1459028,20.3350972 13.155625,20.1455139 C13.1634028,19.9802361 13.3228472,19.8752361 13.6290972,19.8285694 C14.6022917,19.6632917 15.0913194,18.8612083 15.0913194,17.4310694 L15.1029861,16.8837083 L15.1029861,11.7367639 C15.1029861,11.2973194 15.063125,11.0406528 14.9785417,10.9657917 C14.8959028,10.8909306 14.616875,10.8559306 14.1434028,10.8559306 L5.94368056,10.8559306 C5.41381944,10.8559306 5.08520833,10.9084306 4.95493056,11.0163472 C4.82465278,11.1242639 4.76048611,11.3955139 4.76048611,11.8349583 L4.76048611,16.9721806 C4.76048611,17.9444028 4.91215278,18.6259306 5.219375,19.0177361 C5.525625,19.4124583 6.09729167,19.6535694 6.93145833,19.7469028 C7.27368056,19.7799583 7.450625,19.9014861 7.46131944,20.1027361 C7.46909722,20.2932917 7.33493056,20.3905139 7.05784722,20.3905139 C6.93534722,20.3905139 6.70784722,20.3662083 6.374375,20.3263472 C6.12451389,20.281625 5.56743056,20.2621806 4.70604167,20.2621806 L3.53548611,20.2495417 L2.61576389,20.2806528 C2.38243056,20.2806528 2.09173611,20.2962083 1.73784722,20.3263472 C1.255625,20.369125 0.962986111,20.3905139 0.860902778,20.3905139 C0.628541667,20.3905139 0.514791667,20.3030139 0.514791667,20.1299583 C0.514791667,19.9646806 0.634375,19.8567639 0.876458333,19.8013472 L1.57159722,19.6331528 C1.98090278,19.537875 2.25798611,19.2306528 2.40868056,18.7046806 C2.55451389,18.1835694 2.63034722,17.2657917 2.63034722,15.9562083 L2.63034722,3.91426389 C2.63034722,3.10148611 2.47673611,2.51231944 2.17048611,2.14676389 C1.86423611,1.78218056 1.316875,1.53815278 0.526458333,1.41856944 C0.258125,1.37968056 0.123958333,1.28051389 0.123958333,1.11718056 C0.123958333,0.925652778 0.245486111,0.832319444 0.486597222,0.842041667 C0.661597222,0.851763889 0.940625,0.880930556 1.31979167,0.926625 C2.04506944,1.01023611 2.89381944,1.05204167 3.86993056,1.05204167 C4.52715278,1.05204167 5.14548611,1.01606944 5.72006944,0.941208333 C5.97090278,0.904263889 6.16631944,0.882875 6.30631944,0.882875 C6.57465278,0.882875 6.70784722,0.982041667 6.70784722,1.17065278 C6.70784722,1.31843056 6.584375,1.42440278 6.33256944,1.486625 C5.71229167,1.64704167 5.29423611,1.87356944 5.079375,2.16718056 C4.86743056,2.46273611 4.76048611,2.956625 4.76048611,3.65176389 L4.76048611,8.66648611 C4.76048611,9.19926389 4.81201389,9.52009722 4.91993056,9.62120833 C5.026875,9.72523611 5.36909722,9.77481944 5.94368056,9.77481944" id="Fill-3" fill="#FFFFFF" mask="url(#mask-2)"></path>
            </g>
            <path d="M44.758,3.83045833 L44.758,9.47420833 C44.758,9.90393056 44.7949444,10.1644861 44.8746667,10.2539306 C44.9514722,10.3414306 45.1877222,10.387125 45.5824444,10.387125 L47.7028611,10.387125 C48.6682778,10.387125 49.4314722,10.3307361 49.9905,10.2189306 C50.4853611,10.1168472 50.8071667,9.98073611 50.9539722,9.81448611 C51.10175,9.64434722 51.2339722,9.25448611 51.3525833,8.63809722 C51.39925,8.40476389 51.5178611,8.29101389 51.7055,8.30268056 C51.8834167,8.313375 51.9718889,8.43684722 51.9718889,8.67795833 C51.9718889,8.74309722 51.9670278,8.847125 51.9582778,8.98518056 C51.8756389,9.89031944 51.8357778,10.7137917 51.8357778,11.4575417 C51.8357778,12.023375 51.863,12.5872639 51.9174444,13.1462917 C51.9368889,13.3310139 51.9446667,13.4651806 51.9446667,13.5507361 C51.9446667,13.7801806 51.8561944,13.8968472 51.6773056,13.8968472 C51.4818889,13.8968472 51.3632778,13.7967083 51.3253611,13.5915694 L51.2446667,13.2007361 C51.1328611,12.5736528 50.9131389,12.1487917 50.5835556,11.9261528 C50.253,11.7005972 49.6949444,11.5907361 48.9084167,11.5907361 L45.8702222,11.5907361 C45.4210556,11.5907361 45.1216111,11.6354583 44.9689722,11.7317083 C44.8182778,11.8230972 44.7414722,12.0107361 44.7414722,12.2897639 L44.758,12.7535139 L44.758,17.9111528 C44.758,18.7064306 44.8960556,19.2012917 45.178,19.3967083 C45.4550833,19.5930972 46.1638333,19.6903194 47.3013333,19.6903194 C50.9024444,19.6903194 53.2182778,18.8649028 54.2449444,17.2160139 C54.3499444,17.0565694 54.4520278,16.9710139 54.5560556,16.9632361 C54.7252222,16.9535139 54.8098056,17.0730972 54.8098056,17.3249028 C54.8098056,17.929625 54.4753611,18.6519861 53.8035556,19.4861528 C52.9946667,20.4894861 51.97675,20.992125 50.7478611,20.992125 C50.4824444,20.992125 50.1236944,20.974625 49.6725833,20.9337917 C47.9186944,20.7685139 46.4700833,20.6829583 45.3218889,20.6829583 C43.7148056,20.6829583 42.5821667,20.7412917 41.9200833,20.8501806 C41.5700833,20.9172639 41.3338333,20.9493472 41.2055,20.9493472 C40.9099444,20.9493472 40.7641111,20.8492083 40.7641111,20.6489306 C40.7641111,20.4943472 40.88175,20.3825417 41.1209167,20.3212917 L41.6449444,20.1667083 C42.3050833,19.9800417 42.6356389,19.3247639 42.6356389,18.2028194 L42.6511944,17.2947639 L42.6511944,5.45309722 C42.6511944,4.11823611 42.5063333,3.21990278 42.2156389,2.75615278 C41.9278611,2.29434722 41.3659167,2.06198611 40.5288333,2.06198611 C40.2614722,2.06198611 40.12925,1.97643056 40.12925,1.80143056 C40.12925,1.54670833 40.3373056,1.41740278 40.7505,1.41740278 C40.978,1.41740278 41.2861944,1.44268056 41.6731389,1.48934722 C42.9846667,1.63809722 44.5645278,1.71198611 46.4098056,1.71198611 C47.5288333,1.71198611 48.5205,1.69448611 49.3828611,1.65754167 L51.3389722,1.55934722 C51.8795278,1.540875 52.2120278,1.52240278 52.3306389,1.50393056 C52.5795278,1.46406944 52.7613333,1.44754167 52.8828611,1.44754167 C53.18425,1.44754167 53.3368889,1.58170833 53.3368889,1.85101389 C53.3368889,1.93365278 53.3213333,2.04254167 53.2950833,2.17184722 C53.2688333,2.302125 53.2299444,2.67254167 53.18425,3.28698611 L53.1298056,4.11045833 C53.0821667,4.65004167 53.0355,4.98545833 52.9898056,5.11865278 C52.9421667,5.25476389 52.8400833,5.32768056 52.6806389,5.33643056 C52.5036944,5.34615278 52.4132778,5.20615278 52.4132778,4.918375 L52.4132778,4.55184722 C52.4132778,4.25434722 52.3588333,3.97143056 52.248,3.69920833 C52.0759167,3.27920833 51.7210556,2.99823611 51.18925,2.86115278 C50.6584167,2.72115278 49.6823056,2.65018056 48.2618889,2.65018056 L46.1035556,2.65018056 C45.5348056,2.65018056 45.16925,2.722125 45.0039722,2.86601389 C44.8386944,3.01379167 44.758,3.33365278 44.758,3.83045833" id="Fill-6" fill="#FFFFFF"></path>
            <g id="Group-10" transform="translate(63.194444, 0.575944)">
                <mask id="mask-4" fill="white">
                    <use xlink:href="#path-3"></use>
                </mask>
                <g id="Clip-9"></g>
                <path d="M11.1408889,0.396277778 C14.0711667,0.396277778 16.4395,1.25086111 18.2410278,2.95516667 C20.0464444,4.66141667 20.9476944,6.90044444 20.9476944,9.67322222 C20.9476944,12.6900278 20.0163056,15.2479444 18.1583889,17.3421111 C16.3451944,19.3915556 13.8475556,20.4162778 10.6635278,20.4162778 C7.6195,20.4162778 5.18602778,19.5257222 3.36311111,17.7455833 C1.54311111,15.9615556 0.630194444,13.5815556 0.630194444,10.6036389 C0.630194444,9.32516667 0.862555556,8.0535 1.32144444,6.79058333 C1.78130556,5.52669444 2.40741667,4.46697222 3.19783333,3.61044444 C4.10588889,2.60613889 5.26575,1.82058333 6.67061111,1.25086111 C8.07352778,0.681138889 9.562,0.396277778 11.1408889,0.396277778 M10.1258889,1.45405556 C8.24075,1.45405556 6.76491667,2.15405556 5.70325,3.55211111 C4.64061111,4.95211111 4.11075,6.90044444 4.11075,9.401 C4.11075,12.3487778 4.77769444,14.7462778 6.11255556,16.5915556 C7.44547222,18.4378056 9.17602778,19.3585 11.3100556,19.3585 C13.2350556,19.3585 14.7750556,18.5962778 15.9339444,17.0708611 C17.0860278,15.5444722 17.6654722,13.5037778 17.6654722,10.9487778 C17.6654722,9.47488889 17.3961667,8.03502778 16.8614444,6.63016667 C16.32575,5.22725 15.6140833,4.11113889 14.7206111,3.28280556 C13.4217222,2.06558333 11.8924167,1.45405556 10.1258889,1.45405556" id="Fill-8" fill="#FFFFFF" mask="url(#mask-4)"></path>
            </g>
            <path d="M94.3195556,3.32256944 L100.704139,17.8611806 C101.023028,18.5952083 101.397333,19.1415972 101.829,19.5052083 C102.256778,19.8659028 102.812889,20.1070139 103.496361,20.2285417 C103.664556,20.2547917 103.748167,20.3889583 103.748167,20.6261806 C103.748167,20.8799306 103.639278,21.0034028 103.427333,20.9917361 C103.302889,20.9859028 103.125944,20.9577083 102.890667,20.9090972 C102.169278,20.7525694 101.008444,20.6747917 99.4042778,20.6747917 C97.7942778,20.6747917 96.6966389,20.7477083 96.1162222,20.8925694 C95.97525,20.9334028 95.8556667,20.951875 95.7516389,20.951875 C95.4910833,20.951875 95.3598333,20.8177083 95.3598333,20.5532639 C95.3598333,20.4200694 95.4599722,20.3209028 95.6660833,20.2547917 C96.1162222,20.1254861 96.4895556,19.8940972 96.7831667,19.5596528 C97.0767778,19.2242361 97.2245556,18.8722917 97.2245556,18.4999306 C97.2245556,17.9807639 96.8181667,16.8374306 96.0073333,15.0767361 C95.7574722,14.5371528 95.4774722,14.2299306 95.1760833,14.1511806 C94.8708056,14.0724306 93.7955278,14.0325694 91.9483056,14.0325694 L90.0456667,14.0325694 L88.7866389,14.2552083 C88.4424722,14.4097917 88.0496944,15.0232639 87.6121944,16.086875 L87.1805278,17.1563194 C87.0463611,17.4654861 86.9821944,17.7727083 86.9821944,18.0886806 C86.9821944,19.2553472 87.8066389,19.9320139 89.4526111,20.1177083 C89.8065,20.1634028 89.9805278,20.3014583 89.9698333,20.5270139 C89.9533056,20.7710417 89.7841389,20.8964583 89.46525,20.8964583 C89.2960833,20.8964583 89.0578889,20.8682639 88.7487222,20.811875 C88.1274722,20.6922917 87.5771944,20.6329861 87.0891389,20.6329861 C86.6496944,20.6329861 85.9351111,20.6777083 84.9512222,20.7700694 C84.2220556,20.8449306 83.7670556,20.8828472 83.5871944,20.8828472 C83.3246944,20.8828472 83.1944167,20.768125 83.1944167,20.5425694 C83.1944167,20.3539583 83.3246944,20.2110417 83.5871944,20.1177083 C84.0937222,19.9553472 84.4981667,19.6695139 84.7995556,19.2485417 C85.1028889,18.8265972 85.5549722,17.9389583 86.1538611,16.585625 L89.9853889,7.826875 C90.2935833,7.13076389 90.5094167,6.654375 90.629,6.39479167 L91.9356667,3.740625 L92.6074722,2.43395833 L92.6074722,2.47479167 C92.9088611,1.76895833 93.1091389,1.41798611 93.21025,1.41798611 C93.3609444,1.41798611 93.6185833,1.806875 93.9841389,2.58659722 L94.3195556,3.32256944 Z M94.8474722,12.0288194 L93.0158056,7.78020833 C92.5753889,6.76229167 92.2623333,6.25090278 92.0756667,6.25090278 C91.9648333,6.25090278 91.7596944,6.58145833 91.4612222,7.23770833 L91.1948333,7.82201389 L89.5556667,11.5290972 L89.4049722,11.8771528 C89.3388611,12.0161806 89.3067778,12.1347917 89.3067778,12.236875 C89.3067778,12.5509028 89.64025,12.7103472 90.3101111,12.7103472 L94.4546944,12.7103472 C94.8085833,12.7103472 94.9855278,12.6111806 94.9855278,12.4196528 C94.9855278,12.3710417 94.9621944,12.2932639 94.9165,12.1814583 L94.8474722,12.0288194 Z" id="Fill-11" fill="#FFFFFF"></path>
            <path d="M110.140042,6.13948611 L110.140042,11.0987917 C110.140042,11.437125 110.217819,11.6082361 110.379208,11.6169861 C110.462819,11.6169861 110.691292,11.480875 111.061708,11.2086528 L112.452958,10.0069861 L114.440181,8.31240278 C117.054486,6.06170833 118.360181,4.52754167 118.360181,3.70990278 C118.360181,3.43476389 118.236708,3.21698611 117.990736,3.05365278 C117.745736,2.88740278 117.415181,2.80670833 117.008792,2.80670833 C116.704486,2.80670833 116.554764,2.68129167 116.554764,2.43143056 C116.554764,2.20004167 116.730736,2.083375 117.079764,2.083375 C117.468653,2.083375 117.870181,2.10573611 118.279486,2.15143056 C119.294486,2.26129167 120.009069,2.31379167 120.415458,2.31379167 C120.718792,2.31379167 121.096014,2.29240278 121.543236,2.24573611 C122.510597,2.13684722 123.184347,2.083375 123.565458,2.083375 C123.899903,2.083375 124.063236,2.21754167 124.063236,2.48490278 C124.063236,2.68906944 123.856153,2.82323611 123.440042,2.88740278 C122.776014,2.98851389 122.021569,3.32490278 121.177681,3.89754167 C120.331847,4.47115278 119.132125,5.46281944 117.572681,6.87156944 C116.847403,7.525875 116.353514,7.96143056 116.089069,8.18018056 C115.287958,8.82768056 114.886431,9.30406944 114.886431,9.61226389 C114.886431,9.83198611 115.103236,10.2257361 115.529069,10.7993472 L116.556708,12.1351806 C118.931847,15.2637917 120.652681,17.3462917 121.719208,18.3836528 C122.466847,19.1099028 123.525597,19.6553194 124.892542,20.0218472 L125.187125,20.1025417 C125.427264,20.169625 125.539069,20.3154583 125.528375,20.545875 C125.519625,20.7714306 125.374764,20.8793472 125.089903,20.8793472 C124.985875,20.8793472 124.847819,20.8705972 124.680597,20.8550417 C123.749208,20.7617083 122.964625,20.7169861 122.321986,20.7169861 C122.019625,20.7169861 121.700736,20.7354583 121.373097,20.7714306 C120.754764,20.8443472 120.374625,20.8793472 120.231708,20.8793472 C119.740736,20.8793472 119.297403,20.6440694 118.898792,20.169625 C118.860875,20.1239306 118.682958,19.9090694 118.360181,19.5279583 C117.543514,18.5907361 116.487681,17.2986528 115.201431,15.6555972 C113.914208,14.0115694 113.116014,12.9392083 112.812681,12.4375417 C112.545319,12.0185139 112.328514,11.8104583 112.159347,11.8104583 C112.042681,11.8104583 111.901708,11.8911528 111.732542,12.0544861 L111.303792,12.4511528 L110.691292,13.0257361 C110.445319,13.2619861 110.289764,13.5040694 110.230458,13.7549028 C110.167264,14.0047639 110.140042,14.5268472 110.140042,15.3162917 L110.140042,15.9015694 C110.140042,17.3764306 110.297542,18.4225417 110.613514,19.0447639 C110.932403,19.6679583 111.484625,20.0072639 112.268236,20.0607361 C112.791292,20.0976806 113.055736,20.2367083 113.055736,20.475875 C113.055736,20.755875 112.896292,20.8939306 112.583236,20.8939306 C112.405319,20.8939306 112.103931,20.8579583 111.688792,20.7840694 C111.176431,20.7024028 110.521153,20.659625 109.724903,20.659625 C108.663236,20.659625 107.656014,20.7072639 106.710042,20.7976806 C106.102403,20.8550417 105.612403,20.8793472 105.241986,20.8793472 C104.873514,20.8793472 104.689764,20.7442083 104.689764,20.4787917 C104.689764,20.300875 104.811292,20.1900417 105.059208,20.143375 C105.742681,20.0422639 106.214208,19.7544861 106.475736,19.2751806 C106.733375,18.7987917 106.866569,17.9840694 106.866569,16.827125 L106.866569,5.87601389 L106.879208,5.34323611 L106.751847,4.56545833 C106.608931,4.07448611 106.340597,3.70406944 105.946847,3.448375 C105.555042,3.194625 104.988236,3.02934722 104.248375,2.958375 C104.018931,2.93018056 103.878931,2.88740278 103.829347,2.83198611 C103.774903,2.77559722 103.748653,2.64240278 103.748653,2.42948611 C103.748653,2.214625 103.881847,2.10865278 104.148236,2.10865278 C104.386431,2.10865278 104.620736,2.12518056 104.859903,2.15143056 C105.845736,2.25059722 106.988097,2.30018056 108.288931,2.30018056 C109.396292,2.30018056 110.398653,2.25448611 111.290181,2.16601389 C111.536153,2.13684722 111.744208,2.118375 111.915319,2.10865278 C112.191431,2.09990278 112.328514,2.22143056 112.328514,2.47323611 C112.328514,2.63948611 112.211847,2.75031944 111.974625,2.80670833 C111.156986,3.01670833 110.647542,3.27726389 110.450181,3.59129167 C110.250875,3.90726389 110.152681,4.59170833 110.152681,5.64656944 L110.140042,6.13948611 Z" id="Fill-13" fill="#FFFFFF"></path>
            <path d="M132.486861,1.19583335 C133.384222,1.19583335 134.262139,1.36208335 135.119639,1.69750002 L136.077278,2.0902778 C136.507972,2.2565278 136.815194,2.34111113 136.997972,2.34111113 C137.129222,2.34111113 137.269222,2.30805557 137.411167,2.24291669 L137.956583,1.97944446 C138.034361,1.93958335 138.110194,1.9240278 138.187,1.9240278 C138.387278,1.9240278 138.486444,2.07569446 138.486444,2.38388891 L138.459222,3.51458335 C138.459222,3.69250002 138.467,3.85875002 138.486444,4.0152778 L138.674083,5.38513891 L138.818944,6.65486113 C138.835472,6.76763891 138.847139,6.86194446 138.847139,6.93486113 C138.847139,7.33638891 138.725611,7.53472224 138.486444,7.53472224 C138.314361,7.53472224 138.192833,7.35875002 138.115056,7.00680557 C137.837972,5.70791669 137.138944,4.58305557 136.022833,3.63708335 C134.903806,2.69013891 133.714778,2.21569446 132.4645,2.21569446 C131.605056,2.21569446 130.851583,2.49861113 130.212833,3.06347224 C129.571167,3.6302778 129.251306,4.29819446 129.251306,5.06722224 C129.251306,5.78083335 129.532278,6.39819446 130.097139,6.91638891 C130.461722,7.25180557 131.593389,7.7952778 133.497,8.5477778 C135.761306,9.45097224 137.263389,10.3376389 137.998389,11.2029167 C138.868528,12.2470834 139.303111,13.5041667 139.303111,14.9731945 C139.303111,16.5938889 138.702278,18.0055556 137.499639,19.2052778 C136.296028,20.4088889 134.88825,21.00875 133.273389,21.00875 C132.618111,21.00875 131.570056,20.79 130.138944,20.3525 C129.472,20.1395834 128.979083,19.9986111 128.662139,19.9334722 C128.224639,19.8479167 127.969917,19.7681945 127.896028,19.6894445 C127.827,19.60875 127.767694,19.3705556 127.720056,18.9709722 C127.671444,18.5334722 127.527556,17.9005556 127.288389,17.07125 C126.926722,15.8063889 126.747833,14.9965278 126.747833,14.6416667 C126.747833,14.1954167 126.892694,13.9718056 127.18825,13.9718056 C127.322417,13.9718056 127.418667,14.0816667 127.476028,14.30625 C127.941722,15.9036111 128.755472,17.2452778 129.913389,18.33125 C131.070333,19.4191667 132.268111,19.9606945 133.512556,19.9606945 C134.477,19.9606945 135.339361,19.6019445 136.102556,18.8834722 C136.859917,18.165 137.243944,17.3386111 137.243944,16.4111111 C137.243944,15.6780556 137.042694,15.0743056 136.647972,14.60375 C136.248389,14.1293056 135.562,13.6830556 134.587833,13.265 L132.410056,12.3170834 C130.354778,11.4226389 128.957694,10.5758334 128.22075,9.78250002 C127.484778,8.9852778 127.119222,7.92750002 127.119222,6.60430557 C127.119222,5.06722224 127.633528,3.78291669 128.654361,2.74847224 C129.682,1.71208335 130.961444,1.19583335 132.486861,1.19583335" id="Fill-15" fill="#FFFFFF"></path>
        </g>
    </g>
</svg>